{
  "@quasar/testing-unit-jest": {
    "babel": "babelrc",
    "options": [
      "scripts"
    ]
  },
  "@quasar/testing-e2e-cypress": {
    "options": [
      "scripts"
    ]
  },
  "@quasar/testing": {
    "harnesses": [
      "unit-jest",
      "e2e-cypress"
    ]
  }
}